[gd_scene load_steps=3 format=4 uid="uid://c3ccf8vum8she"]

[ext_resource type="Script" path="res://Scenes/Entities/Buildings/Base/BaseBuildingUnit.gd" id="1_0tdao"]
[ext_resource type="PackedScene" uid="uid://chqo4yto0bv0r" path="res://Scenes/Entities/Components/External/Chassis/BaseChassisComponent.tscn" id="2_tfviu"]

[node name="BaseBuildingUnit" type="StaticBody3D"]
collision_mask = 9
script = ExtResource("1_0tdao")

[node name="Chassis" parent="." instance=ExtResource("2_tfviu")]
