[gd_scene load_steps=3 format=3 uid="uid://duc0g5ycq04qs"]

[ext_resource type="Script" path="res://Scenes/Entities/Environmental/MassFracture/MassFracture.gd" id="1_sdm24"]
[ext_resource type="PackedScene" uid="uid://eg4heyqfsm36" path="res://Scenes/Detritus/Effects/EnergyGlow/EnergyGlow.tscn" id="2_sdjer"]

[node name="MassFracture" type="Node3D"]
script = ExtResource("1_sdm24")

[node name="EnergyGlow" parent="." instance=ExtResource("2_sdjer")]
transform = Transform3D(1, 0, 0, 0, -4.37114e-08, -1, 0, 1, -4.37114e-08, 0, 0, 0)
_color = Color(0.35, 0, 0.35, 1)
_light_intensity = 10

[node name="Timer" type="Timer" parent="."]
wait_time = 5.0
autostart = true
