[gd_scene load_steps=3 format=4 uid="uid://daa0ll7iaiwn0"]

[ext_resource type="PackedScene" uid="uid://c0cwsbrgudicr" path="res://Scenes/GUI/Common/Settings/Base/BaseSetting.tscn" id="1_2oj0q"]
[ext_resource type="Script" path="res://Scenes/GUI/Common/Settings/Value/ValueSetting.gd" id="2_qgn06"]

[node name="ValueSetting" instance=ExtResource("1_2oj0q")]
script = ExtResource("2_qgn06")
_minimum = 0.0
_maximum = 1.0
_default_value = 0.5
_step = 0.01
format_string = "%s"

[node name="SettingInput" type="SpinBox" parent="." index="1"]
layout_mode = 2
step = 0.01

[connection signal="value_changed" from="SettingInput" to="." method="_on_setting_changed"]
