[gd_scene load_steps=3 format=3 uid="uid://b6v3q3gmgdwu5"]

[ext_resource type="Texture2D" uid="uid://bdknsji4lw07x" path="res://Scenes/Detritus/Assets/hole-difuse.png" id="1_vpy5u"]
[ext_resource type="Texture2D" uid="uid://byc6edrbpdfog" path="res://Scenes/Detritus/Assets/hole-normal.png" id="2_bspnt"]

[node name="BulletHole" type="Node3D"]

[node name="Decal" type="Decal" parent="."]
transform = Transform3D(1, 0, 0, 0, -4.37114e-08, 1, 0, -1, -4.37114e-08, 0, 0, 0)
size = Vector3(0.16, 0.16, 0.16)
texture_albedo = ExtResource("1_vpy5u")
texture_normal = ExtResource("2_bspnt")
