[gd_scene load_steps=3 format=4 uid="uid://b0hb6kwixv14p"]

[ext_resource type="PackedScene" uid="uid://bo6oy4st3pj8e" path="res://Scenes/Entities/Components/Properties/BaseComponentProperty.tscn" id="1_101l6"]
[ext_resource type="Script" path="res://Scenes/Entities/Components/Properties/ReadyCallback/ReadyCallbackComponentProperty.gd" id="2_1n23u"]

[node name="ReadyCallbackComponentProperty" instance=ExtResource("1_101l6")]
script = ExtResource("2_1n23u")
_callback = Callable()
