[gd_scene load_steps=2 format=3 uid="uid://m1xu6k0fi42m"]

[ext_resource type="Script" path="res://Scenes/GUI/CommodityDisplay/CommodityDisplay.gd" id="1_y5wlc"]

[node name="CommodityDisplay" type="Label3D"]
transform = Transform3D(1, 0, 0, 0, 1, 0, 0, 0, 1, 0, 1, 0)
billboard = 1
script = ExtResource("1_y5wlc")
