[gd_scene load_steps=2 format=4 uid="uid://fmw0mk50p47r"]

[ext_resource type="Script" path="res://Scenes/Entities/Ephemeral/Bullet/Bullet.gd" id="1_alw0h"]

[node name="Bullet" type="Node3D"]
script = ExtResource("1_alw0h")

[node name="Raycast" type="RayCast3D" parent="."]
target_position = Vector3(0, 0, -1)
collision_mask = 12
