[gd_scene load_steps=3 format=3 uid="uid://bhp6jpx6yp8hs"]

[ext_resource type="PackedScene" uid="uid://c0cwsbrgudicr" path="res://Scenes/GUI/Common/Settings/Base/BaseSetting.tscn" id="1_5o1lx"]
[ext_resource type="Script" path="res://Scenes/GUI/Common/Settings/Text/TextSetting.gd" id="2_ahmlo"]

[node name="TextSetting" instance=ExtResource("1_5o1lx")]
script = ExtResource("2_ahmlo")
_default_value = ""

[node name="TextInput" type="TextEdit" parent="." index="1"]
custom_minimum_size = Vector2(0, 40)
layout_mode = 2
size_flags_horizontal = 3
caret_blink = true

[connection signal="text_changed" from="TextInput" to="." method="_on_text_changed"]
[connection signal="text_set" from="TextInput" to="." method="_on_setting_changed"]
