[gd_scene load_steps=3 format=3 uid="uid://sq50vhaw58bg"]

[ext_resource type="PackedScene" uid="uid://dnjis342k0fng" path="res://Scenes/GUI/Screens/Base/BaseScreen.tscn" id="1_xqhlb"]
[ext_resource type="Script" path="res://Scenes/GUI/Screens/Loading/LoadingScreen.gd" id="2_suql0"]

[node name="LoadingScreen" instance=ExtResource("1_xqhlb")]
script = ExtResource("2_suql0")

[node name="VBoxContainer" type="VBoxContainer" parent="Panel" index="0"]
layout_mode = 1
anchors_preset = 8
anchor_left = 0.5
anchor_top = 0.5
anchor_right = 0.5
anchor_bottom = 0.5
offset_left = -31.0
offset_top = -20.0
offset_right = 31.0
offset_bottom = 20.0
grow_horizontal = 2
grow_vertical = 2

[node name="Title" type="Label" parent="Panel/VBoxContainer" index="0"]
layout_mode = 2
text = "Loading"

[node name="ProgressBar" type="ProgressBar" parent="Panel/VBoxContainer" index="1"]
layout_mode = 2
