[gd_scene load_steps=5 format=4 uid="uid://c8i8xnfsp0lu2"]

[ext_resource type="PackedScene" uid="uid://bo6oy4st3pj8e" path="res://Scenes/Entities/Components/Properties/BaseComponentProperty.tscn" id="1_ixf76"]
[ext_resource type="Script" path="res://Scenes/Entities/Components/Properties/WeaponProperties/Ammo/AmmoComponentProperty.gd" id="2_i2n12"]
[ext_resource type="Script" path="res://Imports/Scripts/Attributes/resource_container.gd" id="2_kg3oe"]
[ext_resource type="Script" path="res://Imports/Scripts/Attributes/Stats/primary_stat.gd" id="3_p6eqi"]

[node name="AmmoComponentProperty" instance=ExtResource("1_ixf76")]
script = ExtResource("2_i2n12")

[node name="Ammo" type="Node" parent="Stats" index="0"]
script = ExtResource("2_kg3oe")
_adjust_current_when_max_changed = false

[node name="Current Ammo" type="Node" parent="Stats/Ammo" index="0"]
script = ExtResource("3_p6eqi")
_base_score = 20.0

[node name="Maximum Ammo" type="Node" parent="Stats/Ammo" index="1"]
script = ExtResource("3_p6eqi")
_base_score = 20.0
