[gd_scene load_steps=3 format=4 uid="uid://bg5cxq6qd70js"]

[ext_resource type="PackedScene" uid="uid://di68s6i7uym7v" path="res://Scenes/Entities/Components/Properties/Behaviors/BaseBehaviorProperty.tscn" id="1_wc5ok"]
[ext_resource type="Script" path="res://Scenes/Entities/Components/Properties/Behaviors/Mining/BaseMiningBehavior.gd" id="2_3y531"]

[node name="BaseMiningBehavior" instance=ExtResource("1_wc5ok")]
script = ExtResource("2_3y531")
