[gd_scene load_steps=4 format=4 uid="uid://lk4cxkkwd23s"]

[ext_resource type="PackedScene" uid="uid://bo6oy4st3pj8e" path="res://Scenes/Entities/Components/Properties/BaseComponentProperty.tscn" id="1_0rosx"]
[ext_resource type="Script" path="res://Imports/Scripts/Attributes/Stats/primary_stat.gd" id="2_lolo3"]
[ext_resource type="Script" path="res://Scenes/Entities/Components/Properties/WeaponProperties/DefensePenetration/DefensePenetrationComponentProperty.gd" id="2_x3h7l"]

[node name="DefensePenetrationComponentProperty" instance=ExtResource("1_0rosx")]
script = ExtResource("2_x3h7l")
_defense_name = "Integrity"

[node name="DamageMultiplier" type="Node" parent="Stats" index="0"]
script = ExtResource("2_lolo3")
_base_score = 1.0

[node name="FlatPen" type="Node" parent="Stats" index="1"]
script = ExtResource("2_lolo3")
_base_score = 0.0

[node name="PenMultiplier" type="Node" parent="Stats" index="2"]
script = ExtResource("2_lolo3")
_base_score = 1.0
