[gd_scene load_steps=3 format=4 uid="uid://cw81l4a0bb4pv"]

[ext_resource type="Script" path="res://Scenes/Entities/Ephemeral/AreaEffect/AreaEffect.gd" id="1_y6lwm"]
[ext_resource type="PackedScene" uid="uid://dbxmakk61eaon" path="res://Scenes/Entities/Components/Properties/TargetArea/TargetAreaComponentProperty.tscn" id="2_dq6mi"]

[node name="AreaEffect" type="Node3D"]
script = ExtResource("1_y6lwm")

[node name="TargetArea" parent="." instance=ExtResource("2_dq6mi")]
