[gd_scene load_steps=8 format=4 uid="uid://bxg6fuv4q8tp1"]

[ext_resource type="Shader" path="res://Imports/Shaders/Outline.gdshader" id="1_uigfn"]
[ext_resource type="Script" path="res://Scenes/GUI/RangeIndicator/RangeIndicator.gd" id="2_1vge1"]
[ext_resource type="Shader" path="res://Imports/Shaders/Intersection.gdshader" id="2_61jlg"]

[sub_resource type="ShaderMaterial" id="ShaderMaterial_q81b2"]
render_priority = 0
shader = ExtResource("1_uigfn")

[sub_resource type="SphereMesh" id="SphereMesh_q038u"]
material = SubResource("ShaderMaterial_q81b2")
radius = 1.0
height = 2.0

[sub_resource type="ShaderMaterial" id="ShaderMaterial_l25a5"]
render_priority = 0
shader = ExtResource("2_61jlg")

[sub_resource type="QuadMesh" id="QuadMesh_tesle"]
material = SubResource("ShaderMaterial_l25a5")
custom_aabb = AABB(-1, -1, -1, 2, 2, 2)
size = Vector2(2, 2)

[node name="RangeIndicator" type="MeshInstance3D"]
instance_shader_parameters/outline_color = Color(0, 0, 0, 1)
mesh = SubResource("SphereMesh_q038u")
skeleton = NodePath("../..")
script = ExtResource("2_1vge1")

[node name="Intersection" type="MeshInstance3D" parent="." groups=["RangeIndicators"]]
instance_shader_parameters/intersection_color = Color(0, 0, 0, 1)
mesh = SubResource("QuadMesh_tesle")
